Statistics and data analysis
…
set.seed(2)
x1 = runif(60,100,300)
x2 = runif(60,20,120)
y = 20 + 4*x1 - 3*x2 + rnorm(60,0,40)
df = tibble(x1,x2,y)
new_x1 = seq(from = 120, to = 300, length.out = 20)
new_x2 = runif(20,30,110)
new_data = tibble(x1 = new_x1, x2 = new_x2)

The data

df

# A tibble: 60 × 3
      x1    x2     y
   <dbl> <dbl> <dbl>
 1  137.  97.0  205.
 2  240. 109.   737.
 3  215.  82.5  603.
 4  134.  46.0  423.
 5  289. 106.   878.
 6  289.  63.7  951.
 7  126.  58.8  267.
 8  267.  66.2  869.
 9  194.  41.9  672.
10  210.  26.6  744.
# ℹ 50 more rows
…
